pset1
…
Warning: Using `by = character()` to perform a cross join was deprecated in dplyr 1.1.0.
ℹ Please use `cross_join()` instead.

dat$period <- ifelse(dat$end_date <= as.Date("2021-01-01"), "No vaccine",
                     ifelse(dat$end_date > as.Date("2021-01-01") & dat$end_date <= as.Date("2021-9-1"), "First vaccine", 
                            ifelse(dat$end_date>as.Date("2021-9-1") & dat$end_date <= as.Date("2022-9-1"), "Booster", 
                                   ifelse(dat$end_date>as.Date("2022-9-1"),"Bivalent",NA))))

dat

# A tibble: 9,853 × 18
   state state_name population region mmwr_y…¹ mmwr_…² cases tests  hosp death…³
   <chr> <chr>           <dbl> <fct>     <dbl>   <dbl> <dbl> <dbl> <dbl>   <dbl>
 1 AK    Alaska         733391 10         2020       4     0    NA    NA       0
 2 AK    Alaska         733391 10         2020       5     0    NA    NA       0
 3 AK    Alaska         733391 10         2020       6     0    NA    NA       0
 4 AK    Alaska         733391 10         2020       7     0    NA    NA       0
 5 AK    Alaska         733391 10         2020       8     0    NA    NA       0
 6 AK    Alaska         733391 10         2020       9     0    NA    NA       0
 7 AK    Alaska         733391 10         2020      10     0    NA    NA       0
 8 AK    Alaska         733391 10         2020      11     0    14    NA       0
 9 AK    Alaska         733391 10         2020      12    11   144    NA       0
10 AK    Alaska         733391 10         2020      13    52   968    NA      NA
# … with 9,843 more rows, 8 more variables: deaths_multiple_causes <dbl>,
#   deaths_prov <dbl>, series_complete <dbl>, booster <dbl>, bivalent <dbl>,
#   start_date <date>, end_date <date>, period <chr>, and abbreviated variable
#   names ¹​mmwr_year, ²​mmwr_week, ³​deaths_underlying_cause
…
